[{
    "model": "sites.site",
    "pk": 1,
    "fields": {
        "domain": "example.com",
        "name": "example.com"
    }
}, {
    "model": "account.emailconfirmation",
    "pk": 7,
    "fields": {
        "email_address": 35,
        "created": "2017-07-21T11:15:26.424Z",
        "sent": "2017-07-21T11:15:26.537Z",
        "key": "foqmohtczm3vgoe78hplsj2gze1sbl7yoaulbkufesujfbmwxyutqmhgpz55qzly"
    }
}, {
    "model": "account.emailconfirmation",
    "pk": 33,
    "fields": {
        "email_address": 74,
        "created": "2017-07-21T16:11:18.822Z",
        "sent": "2017-07-21T16:11:18.858Z",
        "key": "1nelhe7uol2vfrllyekmaidsuqwjalhpv1p3tj8xjia4vckwftjqduwsk3h4guma"
    }
}, {
    "model": "account.emailconfirmation",
    "pk": 49,
    "fields": {
        "email_address": 90,
        "created": "2017-07-27T10:38:13.171Z",
        "sent": "2017-07-27T10:38:13.196Z",
        "key": "qoskyrvriwk8k6xfaopcotkd1vhqtzjapacyzunjrdnmmohxypb6ckwuoyxbhhf4"
    }
}, {
    "model": "account.emailconfirmation",
    "pk": 51,
    "fields": {
        "email_address": 92,
        "created": "2017-07-31T15:06:31.965Z",
        "sent": "2017-07-31T15:06:31.994Z",
        "key": "fyz0htysputpltw1oedvqlell1di9jgfygtyu8m1m5dflzf6hotb9zkwydjprw69"
    }
}, {
    "model": "activities.activity",
    "pk": 1,
    "fields": {
        "name": "Salsa Class2",
        "business": 3,
        "description": "aaa",
        "content": "<div class=\"infobox\">\n    <div class=\"infobox-inner\">\n        <a href=\"\" class=\"infobox-image\" style=\"background-image: url('/uploads/DSC_0951_wfCasf0.JPG');\"></a>\n        <div class=\"infobox-title\">\n            <h2><a href=\"\">Salsa Class2</a></h2>\n            <div class=\"infobox-category\">\n                <i class=\"inventor-poi inventor-poi-house\"></i>\n                <a href=\"#\">Salsa Class2</a>\n            </div>\n            <!-- /.infobox-category -->\n        </div>\n        <!-- /.infobox-title-->\n\n        <a href=\"#\" class=\"inventor-favorites-btn-toggle heart\">\n        <i class=\"fa fa-heart-o\"></i> <span data-toggle=\"I Love It\">Add to favorites</span> </a>\n        <!-- /.inventor-favorites-btn-toggle -->\n        <a class=\"close\">x</a></div>\n</div>",
        "marker_content": "<div class=\"marker-inventor-poi\"><div class=\"marker-inventor-poi-inner\"><i class=\"inventor-poi inventor-poi-house\"></i></div></div>",
        "image": "DSC_0951_wfCasf0.JPG",
        "height_field": 1080,
        "width_field": 1920,
        "address": "",
        "postCode": "",
        "city": "",
        "country": "",
        "website": "",
        "phone": "",
        "email": "",
        "facebookUrl": null,
        "twitterUrl": null,
        "instagramUrl": null,
        "youtubeUrl": null,
        "linkedInUrl": null,
        "latitude": "53.3308782",
        "longitude": "-6.272064799999953",
        "slug": "salsa-class",
        "updated": "2017-09-13T14:07:28.084Z",
        "created": "2017-07-25T13:54:49.667Z",
        "is_active": true,
        "categories": [4]
    }
}, {
    "model": "activities.activity",
    "pk": 6,
    "fields": {
        "name": "Cooking Class 2",
        "business": 4,
        "description": "blabla",
        "content": "<div class=\"infobox\">\n    <div class=\"infobox-inner\">\n        <a href=\"\" class=\"infobox-image\" style=\"background-image: url('/static/img/placeholder_2.jpg');\"></a>\n        <div class=\"infobox-title\">\n            <h2><a href=\"\">Cooking Class 2</a></h2>\n            <div class=\"infobox-category\">\n                <i class=\"inventor-poi inventor-poi-house\"></i>\n                <a href=\"#\">Cooking Class 2</a>\n            </div>\n            <!-- /.infobox-category -->\n        </div>\n        <!-- /.infobox-title-->\n\n        <a href=\"#\" class=\"inventor-favorites-btn-toggle heart\">\n        <i class=\"fa fa-heart-o\"></i> <span data-toggle=\"I Love It\">Add to favorites</span> </a>\n        <!-- /.inventor-favorites-btn-toggle -->\n        <a class=\"close\">x</a></div>\n</div>",
        "marker_content": "<div class=\"marker-inventor-poi\"><div class=\"marker-inventor-poi-inner\"><i class=\"inventor-poi inventor-poi-house\"></i></div></div>",
        "image": "",
        "height_field": 0,
        "width_field": 0,
        "address": "",
        "postCode": "",
        "city": "",
        "country": "",
        "website": "",
        "phone": "",
        "email": "",
        "facebookUrl": null,
        "twitterUrl": null,
        "instagramUrl": null,
        "youtubeUrl": null,
        "linkedInUrl": null,
        "latitude": "53.3434229",
        "longitude": "-6.250936700000011",
        "slug": "cooking-class",
        "updated": "2017-09-13T14:07:50.418Z",
        "created": "2017-07-27T10:42:08.130Z",
        "is_active": true,
        "categories": [3]
    }
}, {
    "model": "activities.activity",
    "pk": 7,
    "fields": {
        "name": "Bachata Class",
        "business": 3,
        "description": "Bachata is sexy",
        "content": "",
        "marker_content": "",
        "image": "",
        "height_field": 0,
        "width_field": 0,
        "address": "",
        "postCode": "Dublin 2",
        "city": "",
        "country": "Ireland",
        "website": "",
        "phone": "",
        "email": "",
        "facebookUrl": null,
        "twitterUrl": null,
        "instagramUrl": null,
        "youtubeUrl": null,
        "linkedInUrl": null,
        "latitude": "53.3469323",
        "longitude": "-6.258046799999988",
        "slug": "bachata-class",
        "updated": "2017-07-31T14:34:48.012Z",
        "created": "2017-07-31T14:34:48.012Z",
        "is_active": true,
        "categories": []
    }
}, {
    "model": "activities.activity",
    "pk": 10,
    "fields": {
        "name": "Group booking",
        "business": 5,
        "description": "aa",
        "content": "<div class=\"infobox\">\n    <div class=\"infobox-inner\">\n        <a href=\"\" class=\"infobox-image\" style=\"background-image: url('/static/img/placeholder_2.jpg');\"></a>\n        <div class=\"infobox-title\">\n            <h2><a href=\"\">Group booking</a></h2>\n            <div class=\"infobox-category\">\n                <i class=\"inventor-poi inventor-poi-house\"></i>\n                <a href=\"#\">Group booking</a>\n            </div>\n            <!-- /.infobox-category -->\n        </div>\n        <!-- /.infobox-title-->\n\n        <a href=\"#\" class=\"inventor-favorites-btn-toggle heart\">\n        <i class=\"fa fa-heart-o\"></i> <span data-toggle=\"I Love It\">Add to favorites</span> </a>\n        <!-- /.inventor-favorites-btn-toggle -->\n        <a class=\"close\">x</a></div>\n</div>",
        "marker_content": "<div class=\"marker-inventor-poi\"><div class=\"marker-inventor-poi-inner\"><i class=\"inventor-poi inventor-poi-house\"></i></div></div>",
        "image": "",
        "height_field": 0,
        "width_field": 0,
        "address": "",
        "postCode": "",
        "city": "",
        "country": "Ireland",
        "website": "",
        "phone": "",
        "email": "",
        "facebookUrl": null,
        "twitterUrl": null,
        "instagramUrl": null,
        "youtubeUrl": null,
        "linkedInUrl": null,
        "latitude": "53.3401177",
        "longitude": "-6.267641499999968",
        "slug": "group-booking",
        "updated": "2017-07-31T15:11:33.863Z",
        "created": "2017-07-31T15:11:33.851Z",
        "is_active": true,
        "categories": []
    }
}, {
    "model": "accounts.customuser",
    "pk": 2,
    "fields": {
        "password": "pbkdf2_sha256$30000$0B0YhRvXokco$1EDZ1bBwXo21bccTGzmCFkyjwNtaPvaI0lGquTwfiVw=",
        "last_login": "2017-07-26T13:43:48.310Z",
        "is_superuser": true,
        "email": "florent.serra@spotimist.com",
        "first_name": "Florent",
        "last_name": "Serra",
        "is_staff": true,
        "is_active": true,
        "date_joined": "2017-07-05T08:46:00.048Z",
        "groups": [],
        "user_permissions": []
    }
}, {
    "model": "accounts.customuser",
    "pk": 48,
    "fields": {
        "password": "pbkdf2_sha256$30000$gNgOQ9FO3thd$xDvodr38wdYex97wMRfud/A+YXn1OwjA7PHf9S2bZuA=",
        "last_login": "2017-09-11T10:10:46.275Z",
        "is_superuser": true,
        "email": "fabio.radwan@spotimist.com",
        "first_name": "Fabio",
        "last_name": "Radwan",
        "is_staff": true,
        "is_active": true,
        "date_joined": "2017-07-20T13:21:48Z",
        "groups": [],
        "user_permissions": []
    }
}, {
    "model": "accounts.customuser",
    "pk": 130,
    "fields": {
        "password": "pbkdf2_sha256$30000$J83MzrHlkIjw$F7G50vo7nqJqRAV5aqJxYY0b3bklp12keo2G3OyOBf0=",
        "last_login": "2017-07-27T10:38:53Z",
        "is_superuser": false,
        "email": "azteca@spotimist.com",
        "first_name": "Azteca",
        "last_name": "Bla bla",
        "is_staff": false,
        "is_active": true,
        "date_joined": "2017-07-27T10:38:12Z",
        "groups": [],
        "user_permissions": []
    }
}, {
    "model": "accounts.customuser",
    "pk": 131,
    "fields": {
        "password": "pbkdf2_sha256$30000$deaLdhHTsxI6$kkWr3CQCGdI+nnmVVi2Eecie5MDOE5qdYctnvW9t1L0=",
        "last_login": "2017-07-31T15:06:49.719Z",
        "is_superuser": false,
        "email": "roomescape@spotimist.com",
        "first_name": "Room",
        "last_name": "Escape",
        "is_staff": false,
        "is_active": true,
        "date_joined": "2017-07-31T15:02:44Z",
        "groups": [],
        "user_permissions": []
    }
}, {
    "model": "business.business",
    "pk": 3,
    "fields": {
        "name": "SalsaDublin",
        "user": 48,
        "description": "",
        "content": "<div class=\"infobox\">\n    <div class=\"infobox-inner\">\n        <a href=\"/salsadublin/\" class=\"infobox-image\" style=\"background-image: url('/uploads/salsadublin2.jpg');\"></a>\n        <div class=\"infobox-title\">\n            <h2><a href=\"/salsadublin/\">SalsaDublin</a></h2>\n            <div class=\"infobox-category\">\n                <i class=\"inventor-poi inventor-poi-house\"></i>\n                <a href=\"#\">SalsaDublin</a>\n            </div>\n            <!-- /.infobox-category -->\n        </div>\n        <!-- /.infobox-title-->\n\n        <a href=\"#\" class=\"inventor-favorites-btn-toggle heart\">\n        <i class=\"fa fa-heart-o\"></i> <span data-toggle=\"I Love It\">Add to favorites</span> </a>\n        <!-- /.inventor-favorites-btn-toggle -->\n        <a class=\"close\">x</a></div>\n</div>",
        "marker_content": "<div class=\"marker-inventor-poi\"><div class=\"marker-inventor-poi-inner\"><i class=\"inventor-poi inventor-poi-house\"></i></div></div>",
        "image": "salsadublin2.jpg",
        "height_field": 376,
        "width_field": 960,
        "addressGmap": "1 Burgh Quay, D02 F243, Ireland",
        "address": "",
        "postCode": "Dublin 2",
        "city": "",
        "country": "Ireland",
        "website": "",
        "phone": "",
        "business_email": "",
        "facebookUrl": "",
        "twitterUrl": "",
        "instagramUrl": "",
        "youtubeUrl": "",
        "linkedInUrl": "",
        "latitude": "53.3469323",
        "longitude": "-6.258046799999988",
        "slug": "salsadublin",
        "updated": "2017-08-08T11:11:32.660Z",
        "created": "2017-07-25T13:41:15.607Z",
        "is_active": true,
        "categories": [4]
    }
}, {
    "model": "business.business",
    "pk": 4,
    "fields": {
        "name": "Azteca",
        "user": 130,
        "description": "",
        "content": "<div class=\"infobox\">\n    <div class=\"infobox-inner\">\n        <a href=\"/azteca/\" class=\"infobox-image\" style=\"background-image: url('/uploads/cooking_ZyiV2RS.png');\"></a>\n        <div class=\"infobox-title\">\n            <h2><a href=\"/azteca/\">Azteca</a></h2>\n            <div class=\"infobox-category\">\n                <i class=\"inventor-poi inventor-poi-house\"></i>\n                <a href=\"#\">Azteca</a>\n            </div>\n            <!-- /.infobox-category -->\n        </div>\n        <!-- /.infobox-title-->\n\n        <a href=\"#\" class=\"inventor-favorites-btn-toggle heart\">\n        <i class=\"fa fa-heart-o\"></i> <span data-toggle=\"I Love It\">Add to favorites</span> </a>\n        <!-- /.inventor-favorites-btn-toggle -->\n        <a class=\"close\">x</a></div>\n</div>",
        "marker_content": "<div class=\"marker-inventor-poi\"><div class=\"marker-inventor-poi-inner\"><i class=\"inventor-poi inventor-poi-house\"></i></div></div>",
        "image": "cooking_ZyiV2RS.png",
        "height_field": 700,
        "width_field": 1248,
        "addressGmap": "Lord Edward Street, Dublin, Ireland",
        "address": "Lord Edward Street",
        "postCode": "",
        "city": "Dublin",
        "country": "Ireland",
        "website": "",
        "phone": "",
        "business_email": "azteca@gmail.com",
        "facebookUrl": "",
        "twitterUrl": "",
        "instagramUrl": "",
        "youtubeUrl": "",
        "linkedInUrl": "",
        "latitude": "53.3438872",
        "longitude": "-6.268619899999976",
        "slug": "azteca",
        "updated": "2017-08-04T16:16:11.664Z",
        "created": "2017-07-27T10:38:13.346Z",
        "is_active": true,
        "categories": [3]
    }
}, {
    "model": "business.business",
    "pk": 5,
    "fields": {
        "name": "Room Escape Dublin",
        "user": 131,
        "description": "Get out as quick as you can",
        "content": "<div class=\"infobox\">\n    <div class=\"infobox-inner\">\n        <a href=\"/room-escape-dublin/\" class=\"infobox-image\" style=\"background-image: url('/uploads/c700x420_gWUQech.jpg');\"></a>\n        <div class=\"infobox-title\">\n            <h2><a href=\"/room-escape-dublin/\">Room Escape Dublin</a></h2>\n            <div class=\"infobox-category\">\n                <i class=\"inventor-poi inventor-poi-house\"></i>\n                <a href=\"#\">Room Escape Dublin</a>\n            </div>\n            <!-- /.infobox-category -->\n        </div>\n        <!-- /.infobox-title-->\n\n        <a href=\"#\" class=\"inventor-favorites-btn-toggle heart\">\n        <i class=\"fa fa-heart-o\"></i> <span data-toggle=\"I Love It\">Add to favorites</span> </a>\n        <!-- /.inventor-favorites-btn-toggle -->\n        <a class=\"close\">x</a></div>\n</div>",
        "marker_content": "<div class=\"marker-inventor-poi\"><div class=\"marker-inventor-poi-inner\"><i class=\"inventor-poi inventor-poi-house\"></i></div></div>",
        "image": "c700x420_gWUQech.jpg",
        "height_field": 420,
        "width_field": 700,
        "addressGmap": "6 Whitefriar Street, Dublin, Ireland",
        "address": "",
        "postCode": "",
        "city": "",
        "country": "Ireland",
        "website": "",
        "phone": "",
        "business_email": "",
        "facebookUrl": "",
        "twitterUrl": "",
        "instagramUrl": "",
        "youtubeUrl": "",
        "linkedInUrl": "",
        "latitude": "53.3401177",
        "longitude": "-6.267641499999968",
        "slug": "room-escape-dublin",
        "updated": "2017-08-08T11:11:38.511Z",
        "created": "2017-07-31T15:07:58.344Z",
        "is_active": true,
        "categories": [4]
    }
}, {
    "model": "categories.category",
    "pk": 3,
    "fields": {
        "parent": null,
        "name": "Cooking",
        "slug": "cooking",
        "active": true,
        "thumbnail": "",
        "thumbnail_width": null,
        "thumbnail_height": null,
        "order": 0,
        "alternate_title": "Cooking",
        "alternate_url": "",
        "description": "",
        "meta_keywords": "",
        "meta_extra": "",
        "lft": 1,
        "rght": 2,
        "tree_id": 1,
        "level": 0
    }
}, {
    "model": "categories.category",
    "pk": 4,
    "fields": {
        "parent": null,
        "name": "Fitness",
        "slug": "fitness",
        "active": true,
        "thumbnail": "",
        "thumbnail_width": null,
        "thumbnail_height": null,
        "order": 0,
        "alternate_title": "Fitness",
        "alternate_url": "",
        "description": "",
        "meta_keywords": "",
        "meta_extra": "",
        "lft": 1,
        "rght": 2,
        "tree_id": 2,
        "level": 0
    }
}, {
    "model": "services.servicetype",
    "pk": 1,
    "fields": {
        "name": "Drop-in",
        "description": "Drop-in class, no booking required.",
        "requires_booking": false,
        "is_subscription": false
    }
}, {
    "model": "services.servicetype",
    "pk": 2,
    "fields": {
        "name": "Course",
        "description": "Monthly course",
        "requires_booking": true,
        "is_subscription": true
    }
}, {
    "model": "services.service",
    "pk": 13,
    "fields": {
        "name": "2 Hours Class",
        "service_type": 1,
        "description": null,
        "activity": 1,
        "updated": "2017-09-13T14:19:06.575Z",
        "created": "2017-09-13T13:49:11.850Z",
        "price": "15.00"
    }
}, {
    "model": "services.service",
    "pk": 14,
    "fields": {
        "name": "1 Hour Class",
        "service_type": 1,
        "description": null,
        "activity": 1,
        "updated": "2017-09-13T14:19:27.454Z",
        "created": "2017-09-13T14:19:27.454Z",
        "price": "10.00"
    }
}, {
    "model": "services.service",
    "pk": 15,
    "fields": {
        "name": "Trial Class",
        "service_type": 1,
        "description": null,
        "activity": 1,
        "updated": "2017-09-13T14:19:40.617Z",
        "created": "2017-09-13T14:19:40.617Z",
        "price": "0.00"
    }
}, {
    "model": "services.service",
    "pk": 16,
    "fields": {
        "name": "1 Hour Class",
        "service_type": 1,
        "description": "",
        "activity": 6,
        "updated": "2017-09-13T22:12:38.591Z",
        "created": "2017-09-13T22:12:38.591Z",
        "price": "15.00"
    }
}, {
    "model": "services.service",
    "pk": 17,
    "fields": {
        "name": "1 Hour Class",
        "service_type": 1,
        "description": null,
        "activity": 7,
        "updated": "2017-09-14T12:19:14.008Z",
        "created": "2017-09-14T12:19:14.009Z",
        "price": "10.00"
    }
}, {
    "model": "services.service",
    "pk": 18,
    "fields": {
        "name": "2 Hours Class",
        "service_type": 1,
        "description": null,
        "activity": 7,
        "updated": "2017-09-14T12:19:53.194Z",
        "created": "2017-09-14T12:19:53.194Z",
        "price": "10.00"
    }
}, {
    "model": "account.emailaddress",
    "pk": 35,
    "fields": {
        "user": 48,
        "email": "fabio.radwan@spotimist.com",
        "verified": true,
        "primary": true
    }
}, {
    "model": "account.emailaddress",
    "pk": 74,
    "fields": {
        "user": 2,
        "email": "florent.serra@spotimist.com",
        "verified": true,
        "primary": true
    }
}, {
    "model": "account.emailaddress",
    "pk": 90,
    "fields": {
        "user": 130,
        "email": "bla@gmail.com",
        "verified": true,
        "primary": true
    }
}, {
    "model": "account.emailaddress",
    "pk": 92,
    "fields": {
        "user": 131,
        "email": "roomescape@spotimist.com",
        "verified": true,
        "primary": true
    }
}]